…
``` r
videos
## Try also
## view(videos)
## head(videos)
```

``` output
# A tibble: 200 × 32
   position randomise channel_id               channel_title      video_id url  
      <dbl>     <dbl> <chr>                    <chr>              <chr>    <chr>
 1      112       409 UCI3RT5PGmdi1KVp9FG_CneA eNCA               iPUAl1j… http…
 2       50       702 UCI3RT5PGmdi1KVp9FG_CneA eNCA               YUmIAd_… http…
 3      149       313 UCMwDXpWEVQVw4ZF7z-E4NoA StellenboschNews … v8XfpOi… http…
 4      167       384 UCsqKkYLOaJ9oBwq9rxFyZMw SOUTH AFRICAN POL… lnLdo2k… http…
 5      195       606 UC5G5Dy8-mmp27jo6Frht7iQ Umgosi Entertainm… XN6toca… http…
 6      213       423 UCC1udUghY9dloGMuvZzZEzA The Tea World      rh2Nz78… http…
 7      145       452 UCaCcVtl9O3h5en4m-_edhZg Celeb LaLa Land    1l5GZ0N… http…
 8      315       276 UCAurTjb6Ewz21vjfTs1wZxw NOSIPHO NZAMA      j4Y022C… http…
 9      190       321 UCBlX1mnsIFZRqsyRNvpW_rA Zandile Mhlambi    gf2YNN6… http…
10      214       762 UClY87IoUANFZtswyC9GeecQ Beauty recipes     AGJmRd4… http…
# ℹ 190 more rows
# ℹ 26 more variables: published_at <dttm>, published_at_sql <chr>, year <dbl>,
#   month <dbl>, day <dbl>, video_title <chr>, video_description <chr>,
#   tags <chr>, video_category_label <chr>, topic_categories <chr>,
#   duration_sec <dbl>, definition <chr>, caption <lgl>,
#   default_language <chr>, default_l_audio_language <chr>,
#   thumbnail_maxres <chr>, licensed_content <dbl>, …
```
…
``` r
## first column of the tibble
videos[1]
```

``` output
# A tibble: 200 × 1
   position
      <dbl>
 1      112
 2       50
 3      149
 4      167
 5      195
 6      213
 7      145
 8      315
 9      190
10      214
# ℹ 190 more rows
```
…
`:` is a special function that creates numeric vectors of integers in increasing
or decreasing order, test `1:10` and `10:1` for instance.

You can also exclude certain indices of a data frame using the "`-`" sign:


``` r
videos[, -1]          # The whole tibble, except the first column
```

``` output
# A tibble: 200 × 31
   randomise channel_id         channel_title video_id url   published_at       
       <dbl> <chr>              <chr>         <chr>    <chr> <dttm>             
 1       409 UCI3RT5PGmdi1KVp9… eNCA          iPUAl1j… http… 2020-09-14 16:16:44
 2       702 UCI3RT5PGmdi1KVp9… eNCA          YUmIAd_… http… 2020-09-11 05:34:52
 3       313 UCMwDXpWEVQVw4ZF7… Stellenbosch… v8XfpOi… http… 2020-09-10 11:59:51
 4       384 UCsqKkYLOaJ9oBwq9… SOUTH AFRICA… lnLdo2k… http… 2020-09-07 11:08:43
 5       606 UC5G5Dy8-mmp27jo6… Umgosi Enter… XN6toca… http… 2020-09-08 12:45:36
 6       423 UCC1udUghY9dloGMu… The Tea World rh2Nz78… http… 2020-09-09 15:03:43
 7       452 UCaCcVtl9O3h5en4m… Celeb LaLa L… 1l5GZ0N… http… 2020-09-08 18:43:58
 8       276 UCAurTjb6Ewz21vjf… NOSIPHO NZAMA j4Y022C… http… 2021-06-22 10:18:51
 9       321 UCBlX1mnsIFZRqsyR… Zandile Mhla… gf2YNN6… http… 2020-09-07 18:50:42
10       762 UClY87IoUANFZtswy… Beauty recip… AGJmRd4… http… 2022-11-26 09:08:54
# ℹ 190 more rows
# ℹ 25 more variables: published_at_sql <chr>, year <dbl>, month <dbl>,
#   day <dbl>, video_title <chr>, video_description <chr>, tags <chr>,
#   video_category_label <chr>, topic_categories <chr>, duration_sec <dbl>,
#   definition <chr>, caption <lgl>, default_language <chr>,
#   default_l_audio_language <chr>, thumbnail_maxres <chr>,
#   licensed_content <dbl>, location_description <chr>, view_count <dbl>, …
```

``` r
videos[-c(7:131), ]   # Equivalent to head(videos)
```

``` output
# A tibble: 75 × 32
   position randomise channel_id               channel_title      video_id url  
      <dbl>     <dbl> <chr>                    <chr>              <chr>    <chr>
 1      112       409 UCI3RT5PGmdi1KVp9FG_CneA eNCA               iPUAl1j… http…
 2       50       702 UCI3RT5PGmdi1KVp9FG_CneA eNCA               YUmIAd_… http…
 3      149       313 UCMwDXpWEVQVw4ZF7z-E4NoA StellenboschNews … v8XfpOi… http…
 4      167       384 UCsqKkYLOaJ9oBwq9rxFyZMw SOUTH AFRICAN POL… lnLdo2k… http…
 5      195       606 UC5G5Dy8-mmp27jo6Frht7iQ Umgosi Entertainm… XN6toca… http…
 6      213       423 UCC1udUghY9dloGMuvZzZEzA The Tea World      rh2Nz78… http…
 7      154       806 UCzvl9exW-o8IsySPU-ezgoQ TheKingzRSA        m4KitiL… http…
 8      159       496 UC5G5Dy8-mmp27jo6Frht7iQ Umgosi Entertainm… QigpfXd… http…
 9      161       678 UCFnUvf-Lg1nIc5wvl9lx8zQ Mzansi Hotspot     cuXJVNI… http…
10      164       181 UCITau47AeZDY9sO77TA3OUA ITV News           aqSmGuy… http…
# ℹ 65 more rows
# ℹ 26 more variables: published_at <dttm>, published_at_sql <chr>, year <dbl>,
#   month <dbl>, day <dbl>, video_title <chr>, video_description <chr>,
#   tags <chr>, video_category_label <chr>, topic_categories <chr>,
#   duration_sec <dbl>, definition <chr>, caption <lgl>,
#   default_language <chr>, default_l_audio_language <chr>,
#   thumbnail_maxres <chr>, licensed_content <dbl>, …
```
…
When we imported the data in R, `read_csv()` recognized that this column
contained date information. We can now use the `day()`, `month()` and  `year()`
functions to extract this information from the date, and create new columns in
our data frame to store it:


``` r
videos$day <- day(dates)
videos$month <- month(dates)
videos$year <- year(dates)
videos
```

``` output
# A tibble: 200 × 32
   position randomise channel_id               channel_title      video_id url  
      <dbl>     <dbl> <chr>                    <chr>              <chr>    <chr>
 1      112       409 UCI3RT5PGmdi1KVp9FG_CneA eNCA               iPUAl1j… http…
 2       50       702 UCI3RT5PGmdi1KVp9FG_CneA eNCA               YUmIAd_… http…
 3      149       313 UCMwDXpWEVQVw4ZF7z-E4NoA StellenboschNews … v8XfpOi… http…
 4      167       384 UCsqKkYLOaJ9oBwq9rxFyZMw SOUTH AFRICAN POL… lnLdo2k… http…
 5      195       606 UC5G5Dy8-mmp27jo6Frht7iQ Umgosi Entertainm… XN6toca… http…
 6      213       423 UCC1udUghY9dloGMuvZzZEzA The Tea World      rh2Nz78… http…
 7      145       452 UCaCcVtl9O3h5en4m-_edhZg Celeb LaLa Land    1l5GZ0N… http…
 8      315       276 UCAurTjb6Ewz21vjfTs1wZxw NOSIPHO NZAMA      j4Y022C… http…
 9      190       321 UCBlX1mnsIFZRqsyRNvpW_rA Zandile Mhlambi    gf2YNN6… http…
10      214       762 UClY87IoUANFZtswyC9GeecQ Beauty recipes     AGJmRd4… http…
# ℹ 190 more rows
# ℹ 26 more variables: published_at <dttm>, published_at_sql <chr>, year <dbl>,
#   month <dbl>, day <int>, video_title <chr>, video_description <chr>,
#   tags <chr>, video_category_label <chr>, topic_categories <chr>,
#   duration_sec <dbl>, definition <chr>, caption <lgl>,
#   default_language <chr>, default_l_audio_language <chr>,
#   thumbnail_maxres <chr>, licensed_content <dbl>, …
```
…
