…
videos <- read_csv(
  here("data", "youtube-27082024-open-refine-200-na.csv"), 
  na = "na")
```

``` r
## inspect the data
videos
```

``` output
# A tibble: 200 × 32
   position randomise channel_id               channel_title      video_id url  
      <dbl>     <dbl> <chr>                    <chr>              <chr>    <chr>
 1      112       409 UCI3RT5PGmdi1KVp9FG_CneA eNCA               iPUAl1j… http…
 2       50       702 UCI3RT5PGmdi1KVp9FG_CneA eNCA               YUmIAd_… http…
 3      149       313 UCMwDXpWEVQVw4ZF7z-E4NoA StellenboschNews … v8XfpOi… http…
 4      167       384 UCsqKkYLOaJ9oBwq9rxFyZMw SOUTH AFRICAN POL… lnLdo2k… http…
 5      195       606 UC5G5Dy8-mmp27jo6Frht7iQ Umgosi Entertainm… XN6toca… http…
 6      213       423 UCC1udUghY9dloGMuvZzZEzA The Tea World      rh2Nz78… http…
 7      145       452 UCaCcVtl9O3h5en4m-_edhZg Celeb LaLa Land    1l5GZ0N… http…
 8      315       276 UCAurTjb6Ewz21vjfTs1wZxw NOSIPHO NZAMA      j4Y022C… http…
 9      190       321 UCBlX1mnsIFZRqsyRNvpW_rA Zandile Mhlambi    gf2YNN6… http…
10      214       762 UClY87IoUANFZtswyC9GeecQ Beauty recipes     AGJmRd4… http…
# ℹ 190 more rows
# ℹ 26 more variables: published_at <dttm>, published_at_sql <chr>, year <dbl>,
#   month <dbl>, day <dbl>, video_title <chr>, video_description <chr>,
#   tags <chr>, video_category_label <chr>, topic_categories <chr>,
#   duration_sec <dbl>, definition <chr>, caption <lgl>,
#   default_language <chr>, default_l_audio_language <chr>,
#   thumbnail_maxres <chr>, licensed_content <dbl>, …
```
…
To choose rows based on specific criteria, we can use the `filter()` function.
The argument after the dataframe is the condition we want our final
dataframe to adhere to (e.g. channel_title name is SABC News):


``` r
# filters observations where channel title is "SABC News"
filter(videos, channel_title == "SABC News")
```

``` output
# A tibble: 22 × 32
   position randomise channel_id               channel_title video_id    url    
      <dbl>     <dbl> <chr>                    <chr>         <chr>       <chr>  
 1       30       785 UC8yH-uI81UUtEMDsowQyx1g SABC News     PNom9RIla7o https:…
 2       63       418 UC8yH-uI81UUtEMDsowQyx1g SABC News     EZDazXhf-Pk https:…
 3       65       486 UC8yH-uI81UUtEMDsowQyx1g SABC News     9ewtc8eUY7k https:…
 4        9       380 UC8yH-uI81UUtEMDsowQyx1g SABC News     naLVyfMrFGs https:…
 5       14       500 UC8yH-uI81UUtEMDsowQyx1g SABC News     pO8dkGtjxQc https:…
 6       17       647 UC8yH-uI81UUtEMDsowQyx1g SABC News     rRg8J3lqaPc https:…
 7       36       663 UC8yH-uI81UUtEMDsowQyx1g SABC News     TLAxmusluVw https:…
 8       66       541 UC8yH-uI81UUtEMDsowQyx1g SABC News     P82g09FOSQ0 https:…
 9       72       810 UC8yH-uI81UUtEMDsowQyx1g SABC News     N2d1eBI5Zjc https:…
10      132       404 UC8yH-uI81UUtEMDsowQyx1g SABC News     JXz_3WWo3ew https:…
# ℹ 12 more rows
# ℹ 26 more variables: published_at <dttm>, published_at_sql <chr>, year <dbl>,
#   month <dbl>, day <dbl>, video_title <chr>, video_description <chr>,
#   tags <chr>, video_category_label <chr>, topic_categories <chr>,
#   duration_sec <dbl>, definition <chr>, caption <lgl>,
#   default_language <chr>, default_l_audio_language <chr>,
#   thumbnail_maxres <chr>, licensed_content <dbl>, …
```
…
In an "or" statement, observations must meet *at least one* of the specified conditions.
To form "or" statements we use the logical operator for "or," which is the vertical bar (|):


``` r
# filters observations with "|" logical operator
# output dataframe satisfies AT LEAST ONE of the specified conditions
filter(videos, channel_title == "SABC News" | channel_title == "eNCA")
```

``` output
# A tibble: 42 × 32
   position randomise channel_id               channel_title video_id    url    
      <dbl>     <dbl> <chr>                    <chr>         <chr>       <chr>  
 1      112       409 UCI3RT5PGmdi1KVp9FG_CneA eNCA          iPUAl1jywdU https:…
 2       50       702 UCI3RT5PGmdi1KVp9FG_CneA eNCA          YUmIAd_O0U4 https:…
 3       30       785 UC8yH-uI81UUtEMDsowQyx1g SABC News     PNom9RIla7o https:…
 4       63       418 UC8yH-uI81UUtEMDsowQyx1g SABC News     EZDazXhf-Pk https:…
 5       65       486 UC8yH-uI81UUtEMDsowQyx1g SABC News     9ewtc8eUY7k https:…
 6        2       944 UCI3RT5PGmdi1KVp9FG_CneA eNCA          li3_91gCQHc https:…
 7        3       269 UCI3RT5PGmdi1KVp9FG_CneA eNCA          kvQRfnD1h64 https:…
 8        4       518 UCI3RT5PGmdi1KVp9FG_CneA eNCA          3BkmO0M56lA https:…
 9        7       417 UCI3RT5PGmdi1KVp9FG_CneA eNCA          hZBwMrCCp4A https:…
10        9       380 UC8yH-uI81UUtEMDsowQyx1g SABC News     naLVyfMrFGs https:…
# ℹ 32 more rows
# ℹ 26 more variables: published_at <dttm>, published_at_sql <chr>, year <dbl>,
#   month <dbl>, day <dbl>, video_title <chr>, video_description <chr>,
#   tags <chr>, video_category_label <chr>, topic_categories <chr>,
#   duration_sec <dbl>, definition <chr>, caption <lgl>,
#   default_language <chr>, default_l_audio_language <chr>,
#   thumbnail_maxres <chr>, licensed_content <dbl>, …
```
…
This is readable, but can clutter up your workspace with lots of objects that
you have to name individually. With multiple steps, that can be hard to keep
track of.

You can also nest functions (i.e. one function inside of another), like this:


``` r
videos_SABC_metrics <- select(filter(videos, channel_title == "SABC News"),
                         channel_title,view_count:comment_count)
videos_SABC_metrics
```

``` output
# A tibble: 22 × 5
   channel_title view_count like_count favorite_count comment_count
   <chr>              <dbl>      <dbl>          <dbl>         <dbl>
 1 SABC News          22079        125              0           105
 2 SABC News           3339         18              0             7
 3 SABC News          20674        122              0           100
 4 SABC News          19715         68              0           132
 5 SABC News          14485         52              0            19
 6 SABC News           2329         18              0             7
 7 SABC News          25313        133              0           131
 8 SABC News          11466         55              0            28
 9 SABC News           7297         74              0            34
10 SABC News           3147         12              0             2
# ℹ 12 more rows
```
…
- <kbd>Ctrl</kbd> + <kbd>Shift</kbd> + <kbd>M</kbd> if you have a PC or <kbd>Cmd</kbd> +
  <kbd>Shift</kbd> + <kbd>M</kbd> if you have a Mac.


``` r
# the following example is run using magrittr pipe but the output will be same with the native pipe
videos %>%
    filter(channel_title == "SABC News") %>%
    select(channel_title,view_count:comment_count)
```

``` output
# A tibble: 22 × 5
   channel_title view_count like_count favorite_count comment_count
   <chr>              <dbl>      <dbl>          <dbl>         <dbl>
 1 SABC News          22079        125              0           105
 2 SABC News           3339         18              0             7
 3 SABC News          20674        122              0           100
 4 SABC News          19715         68              0           132
 5 SABC News          14485         52              0            19
 6 SABC News           2329         18              0             7
 7 SABC News          25313        133              0           131
 8 SABC News          11466         55              0            28
 9 SABC News           7297         74              0            34
10 SABC News           3147         12              0             2
# ℹ 12 more rows
```
…
If we want to create a new object with this smaller version of the data, we
can assign it a new name:


``` r
videos_SABC_metrics <- videos %>%
    filter(channel_title == "SABC News") %>%
    select(view_count:comment_count)

videos_SABC_metrics
```

``` output
# A tibble: 22 × 4
   view_count like_count favorite_count comment_count
        <dbl>      <dbl>          <dbl>         <dbl>
 1      22079        125              0           105
 2       3339         18              0             7
 3      20674        122              0           100
 4      19715         68              0           132
 5      14485         52              0            19
 6       2329         18              0             7
 7      25313        133              0           131
 8      11466         55              0            28
 9       7297         74              0            34
10       3147         12              0             2
# ℹ 12 more rows
```
…
:::::::::::::::  solution

## Solution


``` r
videos %>%
    filter(video_category_label == "News & Politics") %>%
    select(view_count,like_count,comment_count)
```

``` output
# A tibble: 85 × 3
   view_count like_count comment_count
        <dbl>      <dbl>         <dbl>
 1        939         12            NA
 2        910          7            NA
 3        213          6             2
 4      22079        125           105
 5       3339         18             7
 6      20674        122           100
 7       6745         10            NA
 8       6087         47             0
 9      11359         84             0
10      34911        299            NA
# ℹ 75 more rows
```
…
Frequently you'll want to create new columns based on the values in existing
columns, for example to do unit conversions, or to find the ratio of values in
two columns. For this we'll use `mutate()`.

We might be interested in the ratio of likes
to comments:


``` r
videos %>%
    mutate(ratio = like_count / comment_count)
```

``` output
# A tibble: 200 × 33
   position randomise channel_id               channel_title      video_id url  
      <dbl>     <dbl> <chr>                    <chr>              <chr>    <chr>
 1      112       409 UCI3RT5PGmdi1KVp9FG_CneA eNCA               iPUAl1j… http…
 2       50       702 UCI3RT5PGmdi1KVp9FG_CneA eNCA               YUmIAd_… http…
 3      149       313 UCMwDXpWEVQVw4ZF7z-E4NoA StellenboschNews … v8XfpOi… http…
 4      167       384 UCsqKkYLOaJ9oBwq9rxFyZMw SOUTH AFRICAN POL… lnLdo2k… http…
 5      195       606 UC5G5Dy8-mmp27jo6Frht7iQ Umgosi Entertainm… XN6toca… http…
 6      213       423 UCC1udUghY9dloGMuvZzZEzA The Tea World      rh2Nz78… http…
 7      145       452 UCaCcVtl9O3h5en4m-_edhZg Celeb LaLa Land    1l5GZ0N… http…
 8      315       276 UCAurTjb6Ewz21vjfTs1wZxw NOSIPHO NZAMA      j4Y022C… http…
 9      190       321 UCBlX1mnsIFZRqsyRNvpW_rA Zandile Mhlambi    gf2YNN6… http…
10      214       762 UClY87IoUANFZtswyC9GeecQ Beauty recipes     AGJmRd4… http…
# ℹ 190 more rows
# ℹ 27 more variables: published_at <dttm>, published_at_sql <chr>, year <dbl>,
#   month <dbl>, day <dbl>, video_title <chr>, video_description <chr>,
#   tags <chr>, video_category_label <chr>, topic_categories <chr>,
#   duration_sec <dbl>, definition <chr>, caption <lgl>,
#   default_language <chr>, default_l_audio_language <chr>,
#   thumbnail_maxres <chr>, licensed_content <dbl>, …
```
…
 To look at this relationship, we will first remove
data from our dataset where comments were not recorded.
These cases are recorded as "NA" in the dataset.

To remove these cases, we could insert a `filter()` in the chain:


``` r
videos %>%
    filter(!is.na(comment_count)) %>%
    mutate(ratio = like_count / comment_count)
```

``` output
# A tibble: 184 × 33
   position randomise channel_id               channel_title      video_id url  
      <dbl>     <dbl> <chr>                    <chr>              <chr>    <chr>
 1      149       313 UCMwDXpWEVQVw4ZF7z-E4NoA StellenboschNews … v8XfpOi… http…
 2      167       384 UCsqKkYLOaJ9oBwq9rxFyZMw SOUTH AFRICAN POL… lnLdo2k… http…
 3      195       606 UC5G5Dy8-mmp27jo6Frht7iQ Umgosi Entertainm… XN6toca… http…
 4      213       423 UCC1udUghY9dloGMuvZzZEzA The Tea World      rh2Nz78… http…
 5      145       452 UCaCcVtl9O3h5en4m-_edhZg Celeb LaLa Land    1l5GZ0N… http…
 6      315       276 UCAurTjb6Ewz21vjfTs1wZxw NOSIPHO NZAMA      j4Y022C… http…
 7      190       321 UCBlX1mnsIFZRqsyRNvpW_rA Zandile Mhlambi    gf2YNN6… http…
 8      214       762 UClY87IoUANFZtswyC9GeecQ Beauty recipes     AGJmRd4… http…
 9      263       952 UCYeHXDmIJDiF1DVQM0qfNWQ Mama Shirat        19uG9pR… http…
10       30       785 UC8yH-uI81UUtEMDsowQyx1g SABC News          PNom9RI… http…
# ℹ 174 more rows
# ℹ 27 more variables: published_at <dttm>, published_at_sql <chr>, year <dbl>,
#   month <dbl>, day <dbl>, video_title <chr>, video_description <chr>,
#   tags <chr>, video_category_label <chr>, topic_categories <chr>,
#   duration_sec <dbl>, definition <chr>, caption <lgl>,
#   default_language <chr>, default_l_audio_language <chr>,
#   thumbnail_maxres <chr>, licensed_content <dbl>, …
```
…
## Solution


``` r
videos_ratio <- videos %>%
    filter(comment_count>0) %>%
    mutate(ratio =  view_count/comment_count) %>%
    filter(ratio > 20) %>%
    select(channel_title, ratio)
videos_ratio
```

``` output
# A tibble: 120 × 2
   channel_title   ratio
   <chr>           <dbl>
 1 The Tea World    143.
 2 Celeb LaLa Land  260.
 3 Zandile Mhlambi  106.
 4 Beauty recipes  3707.
 5 Mama Shirat      650.
 6 SABC News        210.
 7 SABC News        477 
 8 SABC News        207.
 9 SABC News        149.
10 SABC News        762.
# ℹ 110 more rows
```
…
`group_by()` is often used together with `summarize()`, which collapses each
group into a single-row summary of that group.  `group_by()` takes as arguments
the column names that contain the **categorical** variables for which you want
to calculate the summary statistics. So to compute the average household size by
channel_title:


``` r
videos %>%
    group_by(channel_title) %>%
    summarize(mean_views = mean(view_count))
```

``` output
# A tibble: 119 × 2
   channel_title                 mean_views
   <chr>                              <dbl>
 1 2nacheki                         54470. 
 2 Absolute Controversy               102  
 3 African Diaspora News Channel    18255  
 4 Al Jazeera English              113704  
 5 Ayanda Mafuyeka                     29.5
 6 Azana Jezile                     65647  
 7 BANELE NOCUZE                      210  
 8 Banetsi Tshetlo                      7  
 9 Beauty recipes                  263208  
10 Blackish Blue TV                   281  
# ℹ 109 more rows
```
…
``` r
videos %>%
    group_by(channel_title, video_category_label) %>%
    summarize(mean_views = mean(view_count))
```

``` output
`summarise()` has grouped output by 'channel_title'. You can override using the
`.groups` argument.
```

``` output
# A tibble: 120 × 3
# Groups:   channel_title [119]
   channel_title                 video_category_label mean_views
   <chr>                         <chr>                     <dbl>
 1 2nacheki                      News & Politics         54470. 
 2 Absolute Controversy          People & Blogs            102  
 3 African Diaspora News Channel News & Politics         18255  
 4 Al Jazeera English            News & Politics        113704  
 5 Ayanda Mafuyeka               People & Blogs             29.5
 6 Azana Jezile                  Howto & Style           65647  
 7 BANELE NOCUZE                 People & Blogs            210  
 8 Banetsi Tshetlo               Entertainment               7  
 9 Beauty recipes                Howto & Style          263208  
10 Blackish Blue TV              News & Politics           281  
# ℹ 110 more rows
```
…
``` r
videos %>%
    group_by(channel_title, video_category_label) %>%
    summarize(mean_views = mean(view_count)) %>%
    ungroup()
```

``` output
`summarise()` has grouped output by 'channel_title'. You can override using the
`.groups` argument.
```

``` output
# A tibble: 120 × 3
   channel_title                 video_category_label mean_views
   <chr>                         <chr>                     <dbl>
 1 2nacheki                      News & Politics         54470. 
 2 Absolute Controversy          People & Blogs            102  
 3 African Diaspora News Channel News & Politics         18255  
 4 Al Jazeera English            News & Politics        113704  
 5 Ayanda Mafuyeka               People & Blogs             29.5
 6 Azana Jezile                  Howto & Style           65647  
 7 BANELE NOCUZE                 People & Blogs            210  
 8 Banetsi Tshetlo               Entertainment               7  
 9 Beauty recipes                Howto & Style          263208  
10 Blackish Blue TV              News & Politics           281  
# ℹ 110 more rows
```
…
``` r
videos %>%
    filter(!is.na(default_l_audio_language)) %>%
    group_by(channel_title, default_l_audio_language) %>%
    summarize(mean_views = mean(view_count))
```

``` output
`summarise()` has grouped output by 'channel_title'. You can override using the
`.groups` argument.
```

``` output
# A tibble: 59 × 3
# Groups:   channel_title [59]
   channel_title                               default_l_audio_lang…¹ mean_views
   <chr>                                       <chr>                       <dbl>
 1 2nacheki                                    en-US                      54470.
 2 African Diaspora News Channel               en                         18255 
 3 Azana Jezile                                en-US                      65647 
 4 Beauty recipes                              en                        263208 
 5 Buhle N                                     en-GB                        405 
 6 By.MonaLisa                                 zxx                         3802 
 7 DoRo Lungani                                zu                         19648 
 8 Duke University - The Fuqua School of Busi… en                          4932 
 9 E News Mzansi                               en                          2876.
10 Economic Freedom Fighters                   en-US                       7164 
# ℹ 49 more rows
# ℹ abbreviated name: ¹​default_l_audio_language
```
…
``` r
videos %>%
    filter(!is.na(default_l_audio_language)) %>%
    group_by(channel_title, default_l_audio_language) %>%
    summarize(mean_views = mean(view_count),
              max_views = max(view_count))
```

``` output
`summarise()` has grouped output by 'channel_title'. You can override using the
`.groups` argument.
```

``` output
# A tibble: 59 × 4
# Groups:   channel_title [59]
   channel_title                     default_l_audio_lang…¹ mean_views max_views
   <chr>                             <chr>                       <dbl>     <dbl>
 1 2nacheki                          en-US                      54470.     98894
 2 African Diaspora News Channel     en                         18255      18255
 3 Azana Jezile                      en-US                      65647      65647
 4 Beauty recipes                    en                        263208     263208
 5 Buhle N                           en-GB                        405        405
 6 By.MonaLisa                       zxx                         3802       3802
 7 DoRo Lungani                      zu                         19648      39223
 8 Duke University - The Fuqua Scho… en                          4932       4932
 9 E News Mzansi                     en                          2876.      5066
10 Economic Freedom Fighters         en-US                       7164      10996
# ℹ 49 more rows
# ℹ abbreviated name: ¹​default_l_audio_language
```
…
