…
videos <- read_csv(
  here("data", "youtube-27082024-open-refine-200-na.csv"), 
  na = "na")
```

``` r
## inspect the data
videos
```

``` output
# A tibble: 200 × 32
   position randomise channel_id               channel_title      video_id url  
      <dbl>     <dbl> <chr>                    <chr>              <chr>    <chr>
 1      112       409 UCI3RT5PGmdi1KVp9FG_CneA eNCA               iPUAl1j… http…
 2       50       702 UCI3RT5PGmdi1KVp9FG_CneA eNCA               YUmIAd_… http…
 3      149       313 UCMwDXpWEVQVw4ZF7z-E4NoA StellenboschNews … v8XfpOi… http…
 4      167       384 UCsqKkYLOaJ9oBwq9rxFyZMw SOUTH AFRICAN POL… lnLdo2k… http…
 5      195       606 UC5G5Dy8-mmp27jo6Frht7iQ Umgosi Entertainm… XN6toca… http…
 6      213       423 UCC1udUghY9dloGMuvZzZEzA The Tea World      rh2Nz78… http…
 7      145       452 UCaCcVtl9O3h5en4m-_edhZg Celeb LaLa Land    1l5GZ0N… http…
 8      315       276 UCAurTjb6Ewz21vjfTs1wZxw NOSIPHO NZAMA      j4Y022C… http…
 9      190       321 UCBlX1mnsIFZRqsyRNvpW_rA Zandile Mhlambi    gf2YNN6… http…
10      214       762 UClY87IoUANFZtswyC9GeecQ Beauty recipes     AGJmRd4… http…
# ℹ 190 more rows
# ℹ 26 more variables: published_at <dttm>, published_at_sql <chr>, year <dbl>,
#   month <dbl>, day <dbl>, video_title <chr>, video_description <chr>,
#   tags <chr>, video_category_label <chr>, topic_categories <chr>,
#   duration_sec <dbl>, definition <chr>, caption <lgl>,
#   default_language <chr>, default_l_audio_language <chr>,
#   thumbnail_maxres <chr>, licensed_content <dbl>, …
```
…
``` r
videos_topics <- videos %>%
  separate_longer_delim(topic_categories, delim = ";") %>%
  replace_na(list(topic_categories = "no_topics")) %>%
  mutate(topic_categories_logical = TRUE) %>%
  pivot_wider(names_from = topic_categories,
              values_from = topic_categories_logical,
              values_fill = list(topic_categories_logical = FALSE))
  videos_topics
```

``` output
# A tibble: 200 × 41
   position randomise channel_id               channel_title      video_id url  
      <dbl>     <dbl> <chr>                    <chr>              <chr>    <chr>
 1      112       409 UCI3RT5PGmdi1KVp9FG_CneA eNCA               iPUAl1j… http…
 2       50       702 UCI3RT5PGmdi1KVp9FG_CneA eNCA               YUmIAd_… http…
 3      149       313 UCMwDXpWEVQVw4ZF7z-E4NoA StellenboschNews … v8XfpOi… http…
 4      167       384 UCsqKkYLOaJ9oBwq9rxFyZMw SOUTH AFRICAN POL… lnLdo2k… http…
 5      195       606 UC5G5Dy8-mmp27jo6Frht7iQ Umgosi Entertainm… XN6toca… http…
 6      213       423 UCC1udUghY9dloGMuvZzZEzA The Tea World      rh2Nz78… http…
 7      145       452 UCaCcVtl9O3h5en4m-_edhZg Celeb LaLa Land    1l5GZ0N… http…
 8      315       276 UCAurTjb6Ewz21vjfTs1wZxw NOSIPHO NZAMA      j4Y022C… http…
 9      190       321 UCBlX1mnsIFZRqsyRNvpW_rA Zandile Mhlambi    gf2YNN6… http…
10      214       762 UClY87IoUANFZtswyC9GeecQ Beauty recipes     AGJmRd4… http…
# ℹ 190 more rows
# ℹ 35 more variables: published_at <dttm>, published_at_sql <chr>, year <dbl>,
#   month <dbl>, day <dbl>, video_title <chr>, video_description <chr>,
#   tags <chr>, video_category_label <chr>, duration_sec <dbl>,
#   definition <chr>, caption <lgl>, default_language <chr>,
#   default_l_audio_language <chr>, thumbnail_maxres <chr>,
#   licensed_content <dbl>, location_description <chr>, view_count <dbl>, …
```
…
``` r
videos_topics %>%
    select(-no_topics) %>% 
    mutate(number_topics = rowSums(select(., business:politics))) %>%
    group_by(channel_title) %>%
    summarize(mean_topics = mean(number_topics))
```

``` output
# A tibble: 119 × 2
   channel_title                 mean_topics
   <chr>                               <dbl>
 1 2nacheki                              1.5
 2 Absolute Controversy                  1  
 3 African Diaspora News Channel         1  
 4 Al Jazeera English                    2  
 5 Ayanda Mafuyeka                       1  
 6 Azana Jezile                          1  
 7 BANELE NOCUZE                         1  
 8 Banetsi Tshetlo                       1  
 9 Beauty recipes                        2  
10 Blackish Blue TV                      2  
# ℹ 109 more rows
```
…
:::::::::::::::  solution

## Solution


``` r
videos_long %>%
  filter(topic_categories_logical) %>% 
  group_by(channel_title) %>% 
  count(topic_categories, sort=TRUE)
```

``` output
# A tibble: 171 × 3
# Groups:   channel_title [114]
   channel_title   topic_categories       n
   <chr>           <chr>              <int>
 1 SABC News       society               22
 2 eNCA            society               20
 3 eNCA            television_program    19
 4 SABC News       television_program    14
 5 Newzroom Afrika society               13
 6 Newzroom Afrika television_program    11
 7 SABC News       health                10
 8 eNCA            health                 8
 9 eNCA            politics               6
10 Newzroom Afrika politics               5
# ℹ 161 more rows
```
…
## Solution


``` r
videos_long %>% 
  filter(topic_categories_logical,
         topic_categories != "no_topics") %>% 
  # to keep information per video, we count video_id
  count(video_id, channel_title) %>% # we want to also keep the channel variable
  group_by(channel_title) %>% 
  summarise(mean_topics = mean(n))
```

``` output
# A tibble: 114 × 2
   channel_title                 mean_topics
   <chr>                               <dbl>
 1 2nacheki                              1.5
 2 Absolute Controversy                  1  
 3 African Diaspora News Channel         1  
 4 Al Jazeera English                    2  
 5 Ayanda Mafuyeka                       2  
 6 Azana Jezile                          1  
 7 BANELE NOCUZE                         1  
 8 Banetsi Tshetlo                       1  
 9 Beauty recipes                        2  
10 Blackish Blue TV                      2  
# ℹ 104 more rows
```
…
  videos_plotting
```

``` output
# A tibble: 200 × 41
   position randomise channel_id               channel_title      video_id url  
      <dbl>     <dbl> <chr>                    <chr>              <chr>    <chr>
 1      112       409 UCI3RT5PGmdi1KVp9FG_CneA eNCA               iPUAl1j… http…
 2       50       702 UCI3RT5PGmdi1KVp9FG_CneA eNCA               YUmIAd_… http…
 3      149       313 UCMwDXpWEVQVw4ZF7z-E4NoA StellenboschNews … v8XfpOi… http…
 4      167       384 UCsqKkYLOaJ9oBwq9rxFyZMw SOUTH AFRICAN POL… lnLdo2k… http…
 5      195       606 UC5G5Dy8-mmp27jo6Frht7iQ Umgosi Entertainm… XN6toca… http…
 6      213       423 UCC1udUghY9dloGMuvZzZEzA The Tea World      rh2Nz78… http…
 7      145       452 UCaCcVtl9O3h5en4m-_edhZg Celeb LaLa Land    1l5GZ0N… http…
 8      315       276 UCAurTjb6Ewz21vjfTs1wZxw NOSIPHO NZAMA      j4Y022C… http…
 9      190       321 UCBlX1mnsIFZRqsyRNvpW_rA Zandile Mhlambi    gf2YNN6… http…
10      214       762 UClY87IoUANFZtswyC9GeecQ Beauty recipes     AGJmRd4… http…
# ℹ 190 more rows
# ℹ 35 more variables: published_at <dttm>, published_at_sql <chr>, year <dbl>,
#   month <dbl>, day <dbl>, video_title <chr>, video_description <chr>,
#   tags <chr>, video_category_label <chr>, duration_sec <dbl>,
#   definition <chr>, caption <lgl>, default_language <chr>,
#   default_l_audio_language <chr>, thumbnail_maxres <chr>,
#   licensed_content <dbl>, location_description <chr>, view_count <dbl>, …
```
…
