Data Carpentry for Media Research: All in One View
…
R

videos
## Try also
## view(videos)
## head(videos)

OUTPUT

# A tibble: 200 × 32
   position randomise channel_id               channel_title      video_id url
      <dbl>     <dbl> <chr>                    <chr>              <chr>    <chr>
 1      112       409 UCI3RT5PGmdi1KVp9FG_CneA eNCA               iPUAl1j… http…
 2       50       702 UCI3RT5PGmdi1KVp9FG_CneA eNCA               YUmIAd_… http…
 3      149       313 UCMwDXpWEVQVw4ZF7z-E4NoA StellenboschNews … v8XfpOi… http…
 4      167       384 UCsqKkYLOaJ9oBwq9rxFyZMw SOUTH AFRICAN POL… lnLdo2k… http…
 5      195       606 UC5G5Dy8-mmp27jo6Frht7iQ Umgosi Entertainm… XN6toca… http…
 6      213       423 UCC1udUghY9dloGMuvZzZEzA The Tea World      rh2Nz78… http…
 7      145       452 UCaCcVtl9O3h5en4m-_edhZg Celeb LaLa Land    1l5GZ0N… http…
 8      315       276 UCAurTjb6Ewz21vjfTs1wZxw NOSIPHO NZAMA      j4Y022C… http…
 9      190       321 UCBlX1mnsIFZRqsyRNvpW_rA Zandile Mhlambi    gf2YNN6… http…
10      214       762 UClY87IoUANFZtswyC9GeecQ Beauty recipes     AGJmRd4… http…
# ℹ 190 more rows
# ℹ 26 more variables: published_at <dttm>, published_at_sql <chr>, year <dbl>,
#   month <dbl>, day <dbl>, video_title <chr>, video_description <chr>,
#   tags <chr>, video_category_label <chr>, topic_categories <chr>,
#   duration_sec <dbl>, definition <chr>, caption <lgl>,
#   default_language <chr>, default_l_audio_language <chr>,
#   thumbnail_maxres <chr>, licensed_content <dbl>, …
…
R

## first column of the tibble
videos[1]

OUTPUT

# A tibble: 200 × 1
   position
      <dbl>
 1      112
 2       50
 3      149
 4      167
 5      195
 6      213
 7      145
 8      315
 9      190
10      214
# ℹ 190 more rows
…
: is a special function that creates numeric vectors of
integers in increasing or decreasing order, test 1:10 and
10:1 for instance.

You can also exclude certain indices of a data frame using the
“-” sign:

R

videos[, -1]          # The whole tibble, except the first column

OUTPUT

# A tibble: 200 × 31
   randomise channel_id         channel_title video_id url   published_at
       <dbl> <chr>              <chr>         <chr>    <chr> <dttm>
 1       409 UCI3RT5PGmdi1KVp9… eNCA          iPUAl1j… http… 2020-09-14 16:16:44
 2       702 UCI3RT5PGmdi1KVp9… eNCA          YUmIAd_… http… 2020-09-11 05:34:52
 3       313 UCMwDXpWEVQVw4ZF7… Stellenbosch… v8XfpOi… http… 2020-09-10 11:59:51
 4       384 UCsqKkYLOaJ9oBwq9… SOUTH AFRICA… lnLdo2k… http… 2020-09-07 11:08:43
 5       606 UC5G5Dy8-mmp27jo6… Umgosi Enter… XN6toca… http… 2020-09-08 12:45:36
 6       423 UCC1udUghY9dloGMu… The Tea World rh2Nz78… http… 2020-09-09 15:03:43
 7       452 UCaCcVtl9O3h5en4m… Celeb LaLa L… 1l5GZ0N… http… 2020-09-08 18:43:58
 8       276 UCAurTjb6Ewz21vjf… NOSIPHO NZAMA j4Y022C… http… 2021-06-22 10:18:51
 9       321 UCBlX1mnsIFZRqsyR… Zandile Mhla… gf2YNN6… http… 2020-09-07 18:50:42
10       762 UClY87IoUANFZtswy… Beauty recip… AGJmRd4… http… 2022-11-26 09:08:54
# ℹ 190 more rows
# ℹ 25 more variables: published_at_sql <chr>, year <dbl>, month <dbl>,
#   day <dbl>, video_title <chr>, video_description <chr>, tags <chr>,
#   video_category_label <chr>, topic_categories <chr>, duration_sec <dbl>,
#   definition <chr>, caption <lgl>, default_language <chr>,
#   default_l_audio_language <chr>, thumbnail_maxres <chr>,
#   licensed_content <dbl>, location_description <chr>, view_count <dbl>, …

R

videos[-c(7:131), ]   # Equivalent to head(videos)

OUTPUT

# A tibble: 75 × 32
   position randomise channel_id               channel_title      video_id url
      <dbl>     <dbl> <chr>                    <chr>              <chr>    <chr>
 1      112       409 UCI3RT5PGmdi1KVp9FG_CneA eNCA               iPUAl1j… http…
 2       50       702 UCI3RT5PGmdi1KVp9FG_CneA eNCA               YUmIAd_… http…
 3      149       313 UCMwDXpWEVQVw4ZF7z-E4NoA StellenboschNews … v8XfpOi… http…
 4      167       384 UCsqKkYLOaJ9oBwq9rxFyZMw SOUTH AFRICAN POL… lnLdo2k… http…
 5      195       606 UC5G5Dy8-mmp27jo6Frht7iQ Umgosi Entertainm… XN6toca… http…
 6      213       423 UCC1udUghY9dloGMuvZzZEzA The Tea World      rh2Nz78… http…
 7      154       806 UCzvl9exW-o8IsySPU-ezgoQ TheKingzRSA        m4KitiL… http…
 8      159       496 UC5G5Dy8-mmp27jo6Frht7iQ Umgosi Entertainm… QigpfXd… http…
 9      161       678 UCFnUvf-Lg1nIc5wvl9lx8zQ Mzansi Hotspot     cuXJVNI… http…
10      164       181 UCITau47AeZDY9sO77TA3OUA ITV News           aqSmGuy… http…
# ℹ 65 more rows
# ℹ 26 more variables: published_at <dttm>, published_at_sql <chr>, year <dbl>,
#   month <dbl>, day <dbl>, video_title <chr>, video_description <chr>,
#   tags <chr>, video_category_label <chr>, topic_categories <chr>,
#   duration_sec <dbl>, definition <chr>, caption <lgl>,
#   default_language <chr>, default_l_audio_language <chr>,
#   thumbnail_maxres <chr>, licensed_content <dbl>, …
…
R

videos$day <- day(dates)
videos$month <- month(dates)
videos$year <- year(dates)
videos

OUTPUT

# A tibble: 200 × 32
   position randomise channel_id               channel_title      video_id url
      <dbl>     <dbl> <chr>                    <chr>              <chr>    <chr>
 1      112       409 UCI3RT5PGmdi1KVp9FG_CneA eNCA               iPUAl1j… http…
 2       50       702 UCI3RT5PGmdi1KVp9FG_CneA eNCA               YUmIAd_… http…
 3      149       313 UCMwDXpWEVQVw4ZF7z-E4NoA StellenboschNews … v8XfpOi… http…
 4      167       384 UCsqKkYLOaJ9oBwq9rxFyZMw SOUTH AFRICAN POL… lnLdo2k… http…
 5      195       606 UC5G5Dy8-mmp27jo6Frht7iQ Umgosi Entertainm… XN6toca… http…
 6      213       423 UCC1udUghY9dloGMuvZzZEzA The Tea World      rh2Nz78… http…
 7      145       452 UCaCcVtl9O3h5en4m-_edhZg Celeb LaLa Land    1l5GZ0N… http…
 8      315       276 UCAurTjb6Ewz21vjfTs1wZxw NOSIPHO NZAMA      j4Y022C… http…
 9      190       321 UCBlX1mnsIFZRqsyRNvpW_rA Zandile Mhlambi    gf2YNN6… http…
10      214       762 UClY87IoUANFZtswyC9GeecQ Beauty recipes     AGJmRd4… http…
# ℹ 190 more rows
# ℹ 26 more variables: published_at <dttm>, published_at_sql <chr>, year <dbl>,
#   month <dbl>, day <int>, video_title <chr>, video_description <chr>,
#   tags <chr>, video_category_label <chr>, topic_categories <chr>,
#   duration_sec <dbl>, definition <chr>, caption <lgl>,
#   default_language <chr>, default_l_audio_language <chr>,
#   thumbnail_maxres <chr>, licensed_content <dbl>, …
…
library(tidyverse)
library(here)

videos <- read_csv(
  here("data", "youtube-27082024-open-refine-200-na.csv"), 
  na = "na")

R

## inspect the data
videos

OUTPUT

# A tibble: 200 × 32
   position randomise channel_id               channel_title      video_id url
      <dbl>     <dbl> <chr>                    <chr>              <chr>    <chr>
 1      112       409 UCI3RT5PGmdi1KVp9FG_CneA eNCA               iPUAl1j… http…
 2       50       702 UCI3RT5PGmdi1KVp9FG_CneA eNCA               YUmIAd_… http…
 3      149       313 UCMwDXpWEVQVw4ZF7z-E4NoA StellenboschNews … v8XfpOi… http…
 4      167       384 UCsqKkYLOaJ9oBwq9rxFyZMw SOUTH AFRICAN POL… lnLdo2k… http…
 5      195       606 UC5G5Dy8-mmp27jo6Frht7iQ Umgosi Entertainm… XN6toca… http…
 6      213       423 UCC1udUghY9dloGMuvZzZEzA The Tea World      rh2Nz78… http…
 7      145       452 UCaCcVtl9O3h5en4m-_edhZg Celeb LaLa Land    1l5GZ0N… http…
 8      315       276 UCAurTjb6Ewz21vjfTs1wZxw NOSIPHO NZAMA      j4Y022C… http…
 9      190       321 UCBlX1mnsIFZRqsyRNvpW_rA Zandile Mhlambi    gf2YNN6… http…
10      214       762 UClY87IoUANFZtswyC9GeecQ Beauty recipes     AGJmRd4… http…
# ℹ 190 more rows
# ℹ 26 more variables: published_at <dttm>, published_at_sql <chr>, year <dbl>,
#   month <dbl>, day <dbl>, video_title <chr>, video_description <chr>,
#   tags <chr>, video_category_label <chr>, topic_categories <chr>,
#   duration_sec <dbl>, definition <chr>, caption <lgl>,
#   default_language <chr>, default_l_audio_language <chr>,
#   thumbnail_maxres <chr>, licensed_content <dbl>, …
…
To choose rows based on specific criteria, we can use the
filter() function. The argument after the dataframe is the
condition we want our final dataframe to adhere to (e.g. channel_title
name is SABC News):

R

# filters observations where channel title is "SABC News"
filter(videos, channel_title == "SABC News")

OUTPUT

# A tibble: 22 × 32
   position randomise channel_id               channel_title video_id    url
      <dbl>     <dbl> <chr>                    <chr>         <chr>       <chr>
 1       30       785 UC8yH-uI81UUtEMDsowQyx1g SABC News     PNom9RIla7o https:…
 2       63       418 UC8yH-uI81UUtEMDsowQyx1g SABC News     EZDazXhf-Pk https:…
 3       65       486 UC8yH-uI81UUtEMDsowQyx1g SABC News     9ewtc8eUY7k https:…
 4        9       380 UC8yH-uI81UUtEMDsowQyx1g SABC News     naLVyfMrFGs https:…
 5       14       500 UC8yH-uI81UUtEMDsowQyx1g SABC News     pO8dkGtjxQc https:…
 6       17       647 UC8yH-uI81UUtEMDsowQyx1g SABC News     rRg8J3lqaPc https:…
 7       36       663 UC8yH-uI81UUtEMDsowQyx1g SABC News     TLAxmusluVw https:…
 8       66       541 UC8yH-uI81UUtEMDsowQyx1g SABC News     P82g09FOSQ0 https:…
 9       72       810 UC8yH-uI81UUtEMDsowQyx1g SABC News     N2d1eBI5Zjc https:…
10      132       404 UC8yH-uI81UUtEMDsowQyx1g SABC News     JXz_3WWo3ew https:…
# ℹ 12 more rows
# ℹ 26 more variables: published_at <dttm>, published_at_sql <chr>, year <dbl>,
#   month <dbl>, day <dbl>, video_title <chr>, video_description <chr>,
#   tags <chr>, video_category_label <chr>, topic_categories <chr>,
#   duration_sec <dbl>, definition <chr>, caption <lgl>,
#   default_language <chr>, default_l_audio_language <chr>,
#   thumbnail_maxres <chr>, licensed_content <dbl>, …
…
In an “or” statement, observations must meet at least one of
the specified conditions. To form “or” statements we use the logical
operator for “or,” which is the vertical bar (|):

R

# filters observations with "|" logical operator
# output dataframe satisfies AT LEAST ONE of the specified conditions
filter(videos, channel_title == "SABC News" | channel_title == "eNCA")

OUTPUT

# A tibble: 42 × 32
   position randomise channel_id               channel_title video_id    url
      <dbl>     <dbl> <chr>                    <chr>         <chr>       <chr>
 1      112       409 UCI3RT5PGmdi1KVp9FG_CneA eNCA          iPUAl1jywdU https:…
 2       50       702 UCI3RT5PGmdi1KVp9FG_CneA eNCA          YUmIAd_O0U4 https:…
 3       30       785 UC8yH-uI81UUtEMDsowQyx1g SABC News     PNom9RIla7o https:…
 4       63       418 UC8yH-uI81UUtEMDsowQyx1g SABC News     EZDazXhf-Pk https:…
 5       65       486 UC8yH-uI81UUtEMDsowQyx1g SABC News     9ewtc8eUY7k https:…
 6        2       944 UCI3RT5PGmdi1KVp9FG_CneA eNCA          li3_91gCQHc https:…
 7        3       269 UCI3RT5PGmdi1KVp9FG_CneA eNCA          kvQRfnD1h64 https:…
 8        4       518 UCI3RT5PGmdi1KVp9FG_CneA eNCA          3BkmO0M56lA https:…
 9        7       417 UCI3RT5PGmdi1KVp9FG_CneA eNCA          hZBwMrCCp4A https:…
10        9       380 UC8yH-uI81UUtEMDsowQyx1g SABC News     naLVyfMrFGs https:…
# ℹ 32 more rows
# ℹ 26 more variables: published_at <dttm>, published_at_sql <chr>, year <dbl>,
#   month <dbl>, day <dbl>, video_title <chr>, video_description <chr>,
#   tags <chr>, video_category_label <chr>, topic_categories <chr>,
#   duration_sec <dbl>, definition <chr>, caption <lgl>,
#   default_language <chr>, default_l_audio_language <chr>,
#   thumbnail_maxres <chr>, licensed_content <dbl>, …
…
You can also nest functions (i.e. one function inside of another),
like this:

R

videos_SABC_metrics <- select(filter(videos, channel_title == "SABC News"),
                         channel_title,view_count:comment_count)
videos_SABC_metrics

OUTPUT

# A tibble: 22 × 5
   channel_title view_count like_count favorite_count comment_count
   <chr>              <dbl>      <dbl>          <dbl>         <dbl>
 1 SABC News          22079        125              0           105
 2 SABC News           3339         18              0             7
 3 SABC News          20674        122              0           100
 4 SABC News          19715         68              0           132
 5 SABC News          14485         52              0            19
 6 SABC News           2329         18              0             7
 7 SABC News          25313        133              0           131
 8 SABC News          11466         55              0            28
 9 SABC News           7297         74              0            34
10 SABC News           3147         12              0             2
# ℹ 12 more rows
…
Ctrl + Shift + M if you have a PC
or Cmd + Shift + M if you have a
Mac.

R

# the following example is run using magrittr pipe but the output will be same with the native pipe
videos %>%
    filter(channel_title == "SABC News") %>%
    select(channel_title,view_count:comment_count)

OUTPUT

# A tibble: 22 × 5
   channel_title view_count like_count favorite_count comment_count
   <chr>              <dbl>      <dbl>          <dbl>         <dbl>
 1 SABC News          22079        125              0           105
 2 SABC News           3339         18              0             7
 3 SABC News          20674        122              0           100
 4 SABC News          19715         68              0           132
 5 SABC News          14485         52              0            19
 6 SABC News           2329         18              0             7
 7 SABC News          25313        133              0           131
 8 SABC News          11466         55              0            28
 9 SABC News           7297         74              0            34
10 SABC News           3147         12              0             2
# ℹ 12 more rows
…
If we want to create a new object with this smaller version of the
data, we can assign it a new name:

R

videos_SABC_metrics <- videos %>%
    filter(channel_title == "SABC News") %>%
    select(view_count:comment_count)

videos_SABC_metrics

OUTPUT

# A tibble: 22 × 4
   view_count like_count favorite_count comment_count
        <dbl>      <dbl>          <dbl>         <dbl>
 1      22079        125              0           105
 2       3339         18              0             7
 3      20674        122              0           100
 4      19715         68              0           132
 5      14485         52              0            19
 6       2329         18              0             7
 7      25313        133              0           131
 8      11466         55              0            28
 9       7297         74              0            34
10       3147         12              0             2
# ℹ 12 more rows
…
Using pipes, subset the videos data to include videos
where the video is categorised as “News & Politics” and retain only
the metrics columns with values (views, likes and comments).

   Show me the solution 

R

videos %>%
    filter(video_category_label == "News & Politics") %>%
    select(view_count,like_count,comment_count)

OUTPUT

# A tibble: 85 × 3
   view_count like_count comment_count
        <dbl>      <dbl>         <dbl>
 1        939         12            NA
 2        910          7            NA
 3        213          6             2
 4      22079        125           105
 5       3339         18             7
 6      20674        122           100
 7       6745         10            NA
 8       6087         47             0
 9      11359         84             0
10      34911        299            NA
# ℹ 75 more rows
…
Frequently you’ll want to create new columns based on the values in
existing columns, for example to do unit conversions, or to find the
ratio of values in two columns. For this we’ll use
mutate().

We might be interested in the ratio of likes to comments:

R

videos %>%
    mutate(ratio = like_count / comment_count)

OUTPUT

# A tibble: 200 × 33
   position randomise channel_id               channel_title      video_id url
      <dbl>     <dbl> <chr>                    <chr>              <chr>    <chr>
 1      112       409 UCI3RT5PGmdi1KVp9FG_CneA eNCA               iPUAl1j… http…
 2       50       702 UCI3RT5PGmdi1KVp9FG_CneA eNCA               YUmIAd_… http…
 3      149       313 UCMwDXpWEVQVw4ZF7z-E4NoA StellenboschNews … v8XfpOi… http…
 4      167       384 UCsqKkYLOaJ9oBwq9rxFyZMw SOUTH AFRICAN POL… lnLdo2k… http…
 5      195       606 UC5G5Dy8-mmp27jo6Frht7iQ Umgosi Entertainm… XN6toca… http…
 6      213       423 UCC1udUghY9dloGMuvZzZEzA The Tea World      rh2Nz78… http…
 7      145       452 UCaCcVtl9O3h5en4m-_edhZg Celeb LaLa Land    1l5GZ0N… http…
 8      315       276 UCAurTjb6Ewz21vjfTs1wZxw NOSIPHO NZAMA      j4Y022C… http…
 9      190       321 UCBlX1mnsIFZRqsyRNvpW_rA Zandile Mhlambi    gf2YNN6… http…
10      214       762 UClY87IoUANFZtswyC9GeecQ Beauty recipes     AGJmRd4… http…
# ℹ 190 more rows
# ℹ 27 more variables: published_at <dttm>, published_at_sql <chr>, year <dbl>,
#   month <dbl>, day <dbl>, video_title <chr>, video_description <chr>,
#   tags <chr>, video_category_label <chr>, topic_categories <chr>,
#   duration_sec <dbl>, definition <chr>, caption <lgl>,
#   default_language <chr>, default_l_audio_language <chr>,
#   thumbnail_maxres <chr>, licensed_content <dbl>, …
…
To remove these cases, we could insert a filter() in the
chain:

R

videos %>%
    filter(!is.na(comment_count)) %>%
    mutate(ratio = like_count / comment_count)

OUTPUT

# A tibble: 184 × 33
   position randomise channel_id               channel_title      video_id url
      <dbl>     <dbl> <chr>                    <chr>              <chr>    <chr>
 1      149       313 UCMwDXpWEVQVw4ZF7z-E4NoA StellenboschNews … v8XfpOi… http…
 2      167       384 UCsqKkYLOaJ9oBwq9rxFyZMw SOUTH AFRICAN POL… lnLdo2k… http…
 3      195       606 UC5G5Dy8-mmp27jo6Frht7iQ Umgosi Entertainm… XN6toca… http…
 4      213       423 UCC1udUghY9dloGMuvZzZEzA The Tea World      rh2Nz78… http…
 5      145       452 UCaCcVtl9O3h5en4m-_edhZg Celeb LaLa Land    1l5GZ0N… http…
 6      315       276 UCAurTjb6Ewz21vjfTs1wZxw NOSIPHO NZAMA      j4Y022C… http…
 7      190       321 UCBlX1mnsIFZRqsyRNvpW_rA Zandile Mhlambi    gf2YNN6… http…
 8      214       762 UClY87IoUANFZtswyC9GeecQ Beauty recipes     AGJmRd4… http…
 9      263       952 UCYeHXDmIJDiF1DVQM0qfNWQ Mama Shirat        19uG9pR… http…
10       30       785 UC8yH-uI81UUtEMDsowQyx1g SABC News          PNom9RI… http…
# ℹ 174 more rows
# ℹ 27 more variables: published_at <dttm>, published_at_sql <chr>, year <dbl>,
#   month <dbl>, day <dbl>, video_title <chr>, video_description <chr>,
#   tags <chr>, video_category_label <chr>, topic_categories <chr>,
#   duration_sec <dbl>, definition <chr>, caption <lgl>,
#   default_language <chr>, default_l_audio_language <chr>,
#   thumbnail_maxres <chr>, licensed_content <dbl>, …
…
   Show me the solution 

R

videos_ratio <- videos %>%
    filter(comment_count>0) %>%
    mutate(ratio =  view_count/comment_count) %>%
    filter(ratio > 20) %>%
    select(channel_title, ratio)
videos_ratio

OUTPUT

# A tibble: 120 × 2
   channel_title   ratio
   <chr>           <dbl>
 1 The Tea World    143.
 2 Celeb LaLa Land  260.
 3 Zandile Mhlambi  106.
 4 Beauty recipes  3707.
 5 Mama Shirat      650.
 6 SABC News        210.
 7 SABC News        477
 8 SABC News        207.
 9 SABC News        149.
10 SABC News        762.
# ℹ 110 more rows
…
